
 > 대학기관 > 대학본부 >  교무처









 



					교무팀은 ‘학생가치 창출’을 위한 최 일선의 부서이다. 1만여 재학생과 700여명의 교원, 38,000여 졸업생을 대상으로 1차적인 교육행정 서비스를 제공하는 부서이기 때문이다. 순천향을 통해 배출되는 인재는 입학과 동시에 학적 생성, 수강 신청, 전공 선택, 수업, 성적 관리, 졸업에 이르기까지 교무팀의 보이지 않는 서비스를 통해서 완성된다. 그 밖에도 교원인사를 비롯한 교육과정의 운영, 교직운영과 대상자 선발, 가상대학 관리, 학적, 학칙 관리 등 전반적인 학사업무를 관장하고 있다. 이를 위하여 교무팀은 확고한 팀워크를 기반으로 ‘인간사랑’의 순천향 정신과 ‘진리 봉사 실천’의 건학이념을 실현하기 위하여 부단히 노력하고 있다. 






위치 : 대학본부 1층



홈페이지 : https://homepage.sch.ac.kr/gyomu/



업무내용




교육과정




									
									
									
									- 교무·학사계획 수립 및 운영 
								
								
								
								



									
									
									
									- 학칙 및 교무규정 관리 
								
								
								
								



									
									
									
									- 교육과정 편성 및 운영관리 
								
								
								
								





학적관리




									
									
									
									- 학생정원 관리 
								
								
								
								



									
									
									
									- 학생 학적(휴·복학, 제적, 자퇴, 재입학 등) 관리 
								
								
								
								



									
									
									
									- 학생 학위수여(졸업) 관리 
								
								
								
								





수업관리




									
									
									
									- 학기별 개설과목 및 수강 관리 
								
								
								
								



									
									
									
									- 학생성적 관리 
								
								
								
								



									
									
									
									- 교원자격 및 각종 자격증 취득 관리 
								
								
								
								



									
									
									
									- OCU 및 타 대학(외국대학) 학점교류 관리 
								
								
								
								





인사관리




									
									
									
									- 교원 충원계획수립 및 임용 관리 
								
								
								
								



									
									
									
									- 교원 업적평가 및 승진, 재임용 관리 
								
								
								
								



									
									
									
									- 교원 보직 및 파견 관리 
								
								
								
								



									
									
									
									- 시간강사 위촉관리 
								
								
								
								















					본 센터에서는 효율적인 교수법과 학습방법에 대한 체계적인 지원활동과 연구개발을 통하여 교수들의 교수력(teaching competency)을 높이고, 학생들의 자기주도적 학습력(learning competency)을 함양시키고, 자체 제작된 컨텐츠를 활용한 학내가상대학 및 이크래스를 운영함으로써 오프라인 교육의 질을 증진함으로써 대학교육의 질적 수준을 한 차원 높이고자 한다.






위치 : 인문과학관 4층



홈페이지 : https://shu.sch.ac.kr







 > 대학기관 > 대학본부 >  입학처














					우리대학교에 지원하고자 하는 수험생들 중 우수한 학생을 선발하기 위한 다양한 입시전형 개발과 그 세부계획을 수립하여 우수한 신입생을 선발하는 업무를 담당하고 있으며, 또한 입학팀에서는 신입생 선발방법과 우리대학의 차별성, 우수성 등을 많은 수험생들에게 알려주는 입시홍보 업무를 담당하는 부서이다.






위치 : 대학본부 1층


 홈페이지 : http://ipsi.sch.ac.kr 


업무내용




1. 신입생 선발




									
									
									- 대학입시 전형 개발 
								
								
								



									
									
									- 신입생 선발에 따른 입학전형계획 수립 및 진행 
								
								
								





2. 편입생 선발




									
									
									- 편입생 선발 계획 수립 
								
								
								



									
									
									- 편입생 선발에 따른 입학전형계획 수립 및 진행 
								
								
								




3. 시간제 등록생 선발


4. 입시 홍보













					잠재적인 능력을 가지고 있는 우수한 인재를 선발하기 위하여 지원자의 성적, 소질, 가정환경, 적성 등 다양한 요소를 고려한 입학전형을 개발·시행하며 입학제도개선에 관한 연구를 수행하는 부서이다.






위치 : 대학본부 1층



홈페이지 : http://ipsi.sch.ac.kr



업무내용




								
								
								1.입학사정관전형 계획 수립 및 신입생 선발 
							
							
							



									
									
									- 입학사정관전형 개발 
								
								
								



									
									
									- 입학사정관전형 계획 수립 및 진행 
								
								
								




							
							
							2. 입학사정관전형 관련 홍보 
						
						
						

							
							
							3. 입학제도 개선에 관한 연구 및 자료 수집 
						
						
						






 > 대학기관 > 대학본부 >  기획처














					기획팀은 향후 대학이 발전해 나갈 미래상을 제시하는 발전 계획의 수립과 대학을 구성하고 있는 교직원에 대한 정원의 책정 및 조직의 설폐, 제규정관리, 제안업무, 예산편성 및 집행, 각종평가 및 감사에 관한 사항 등 대학의 정책적 업무를 담당하는 부서로서 앞으로도 기획업무의 전문성 제고 및 구성원의 능력 개발을 통하여 학교발전의 밑거름이 될 것이다.






위치 : 대학본부 2층



업무내용





								
								
								
								
								1. 종합발전계획 수립 시행 
							
							
							
							
							



								
								
								
								
								2. 대학의 제규정의 제정 및 개폐 
							
							
							
							
							



								
								
								
								
								3. 대학의 조직편제 및 정원관리 
							
							
							
							
							



								
								
								
								
								4. 제안심의 처리 
							
							
							
							
							



								
								
								
								
								5. 대학 기본운영계획 수립 및 조정 
							
							
							
							
							



								
								
								
								
								6. 예산편성의 기본방침 수립 
							
							
							
							
							



								
								
								
								
								7. 예산의 편성 및 조정 
							
							
							
							
							



								
								
								
								
								8. 평가업무 기본계획 수립 및 수행 
							
							
							
							
							



								
								
								
								
								9. 자체평가수행 및 평가결과 분석 
							
							
							
							
							



								
								
								
								
								10. 각종 평가 관련 자료의 수집, 정리 
							
							
							
							
							



								
								
								
								
								11. 대학 통계자료의 수집, 분석, 작성 및 관리 
							
							
							
							
							



								
								
								
								
								12. 대학 재정지원 신청 업무 
							
							
							
							
							



								
								
								
								
								13. 감사에 대한 기본계획 수립 및 수행 
							
							
							
							
							



								
								
								
								
								14. 기타 각 호에 부수되는 사항 
							
							
							
							
							














					전산팀은 대학의 학사/연구/행정의 전산운영 지원, 행정업무의 전산화 프로그램 개발 및 유지, 대학 전산시스템 및 전산장비 관리 등의 업무를 수행하고 있다.
					전산팀은 1999년에 대우정보시스템과 협력하여 종합정보시스템을 개발하였고, 2000년에 Gigabit Ethernet 환경의 대학망 구축과 초고속국가망(PubnetPlus) T3(45Mbps)의 전용회선 도입을 통하여 빠른 인터넷 환경과 멀티미디어 서비스를 수용할 수 있는 계기를 마련하였다.
					2004년에 교육망(KREN)으로 전환 및 전용회선을 90Mbps으로 확장하였고, SUN사의 SF6800 서버를 활용하여 인터넷 기반의 학사행정 서비스를 제공하였다. 2007년에 통합저장관리시스템을 도입하고, 2008년에 전용회선을 200Mbps 확장하였으며 사용자에게 Gigabit 환경을 제공하는 교내망 증설사업을 추진하고 있다.
					그리고 대학 소프트웨어 라이센스 관리, 대학 정보 보호 및 보안 업무를 수행하고 있다.






위치 : 공과대학 3층 9345호



홈페이지 : http://ciso.sch.ac.kr/



업무내용





								
								
								
								
								1. 교육, 연구 및 행정의 전산운영 지원 
							
							
							
							
							



								
								
								
								
								2. 행정 업무 전산화 프로그램 개발 및 유지 
							
							
							
							
							



								
								
								
								
								3. 대학 전산시스템 및 전산장비 관리 
							
							
							
							
							



								
								
								
								
								4. 대학 전산망 및 전용회선 관리 
							
							
							
							
							



								
								
								
								
								5. 대학 소프트웨어 라이센스 관리 
							
							
							
							
							



								
								
								
								
								6. 대학 정보 보호 및 보안 업무 
							
							
							
							
							














					 지방대학 특성화사업(5개 사업단, 1개 우수학과)을 성공적으로 추진하고 지원하기 위한 부서로 대학 전체 교육역량강화사업 및 각 사업단(의과학 Nichebuster 창의인재 양성사업단, 창조적 헬스케어3.0 기술 및 서비스 인재 양성사업단, 지역사회 맞춤형 안전서포터 양성사업단, 글로벌 금융IT 융합 전문인력 양성사업단, 충청권 융합 생명-의약 양성사업단, 보건행정경영학과) 특성화사업을 지원하는 업무를 수행합니다. 

					 

					 대학 특성화사업은 지역사회의 수요와 특성을 고려하여 강점 분야 중심의 대학  특성화기반을 조성하고, 대학의 체질 개선을 유도하고자 하는 사업으로 우리 대학은 총 5개 사업단, 1개 우수학과에 선정되었으며, 5년간 171.85억원을 지원받는 사업입니다.






위치 : 인문과학관 5층 6501호



홈페이지 : http://ck1.sch.ac.kr/ 


업무내용




							 - 다양한 의료산업 분야에 능동적으로 대처할 수 있는 인재 양성

							 - 헬스케어 3.0을 선도할 통섭형 창의인재 양성

							 - 안전한 지역사회를 지향하는 현장 맞춤형 인재 양성

							 - Big Data 시대의 금융과 ICT 융합을 선도할 창의적 실무 인재 양성 

							 - 현장중심 의약바이오 융합교육을 통한 창의적 인재 양성

							 - 인류건강 실현에 공헌하는 보건의료 통섭형 창의인재 양성 












					대학예산팀은 순천향대학교 학교회계의 예산 편성 및 운영에 관한 전반적인 업무를 수행하고 있으며 대학 중·장기 발전 계획에 의거 대학 교육 경쟁력 강화에 이바지하고 있다.
					또한 총장직속 산하 기구인 SIR센터 운영 지원 업무를 하고 있으며, 각종 통계 수집·분석을 통해 대학의 정책 수립 및 의사결정 정보 제공과 관련된 IR(Institutional Research) 업무를 수행하고 있다.






위치 : 대학본부 2층



홈페이지 : 




업무내용


							◻ 대학 재정 운영 계획 수립 및 추진

							◻ 대학 예산 편성·조정 업무

							◻ 각종 수납금 및 인건비 책정


							◻ 대학정보공시·고등교육 통계 등 IR 관련 업무

							◻ SIR센터 지원 업무

							◻ 교·내외 통계 업무 및 통계연보 발간







 > 대학기관 > 대학본부 >  학생처









 



					학생팀은 인간사랑의 순천향 정신에 진리를 탐구하는 인재양성을 목표로 학생정책 수립과 서비스 제공, 장학(교내·외), 학생복지사업을 수행하고 있습니다.

					학생지원업무는 학생자치기구의 대내·외 행사지도 및 지원, 학생상벌관리 및 운영, 학생회 선거지원, 학생회비 집행관리, 신입생 수련회 지원, 학생 과외활동 및 학생 관련 민원 처리 업무 등을 진행하고 있으며, 이밖에 대학문화행사, 동아리 지원 업무, 체육부 지원 및 관리 업무도 담당하고 있습니다.


					
					
					
					장학업무는 교내 장학과 교외 장학으로 분리되며 교내 장학은 장학 예산 집행관리, 연속 장학생 관리, 각종 교내 장학 학생 선발 및 관리, 교내 장학 시스템 개발 및 관리 등의 업무를 수행하며 교외장학은 장학재단 예우 관리 지원, 보훈 장학 국고보조신청 및 관리, 학자금 대출 집행 및 관리, 정부 학자금 대출 관련 업무, 교외 장학재단과 연계된 장학 업무를 진행하고 있습니다. 
				
				
				
				





위치 : 학생회관 1층



홈페이지 : http://homepage.sch.ac.kr/student




업무내용



학생지도 및 학생복지 업무




									
									
									
									1. 학생자치단체 지도 
								
								
								
								



									
									
									
									2. 학생 상벌                    
								
								
								
								



									
									
									
									3. 학생증(스마트카드) 관리 
								
								
								
								



									
									
									
									4. 통학버스 및 셔틀버스 관리                    
								
								
								
								



									
									
									
									5. 신입생 및 편입생 오리엔테이션                    
								
								
								
								



									
									
									
									6. 학부(과)별 연합M.T 지원                    
								
								
								
								





장학 업무




									
									
									
									1. 신입생 장학생 선발 및 지급 
								
								
								
								



									
									
									
									2. 교내・외 장학생 선발 및 지급(국가장학금 포함)                    
								
								
								
								



									
									
									
									3. 정부학자금융자 관련 업무                    
								
								
								
								



									
									
									
									4. 기타장학생 선발 및 지급                    
								
								
								
								





기타 업무




									
									
									
									1. 교내 시설물 집회 게시물 허가                    
								
								
								
								



									
									
									
									2. 학생 공결계 처리 업무 
								
								
								
								



									
									
									
									3. 향설 고시원 관리                    
								
								
								
								



									
									
									
									4. 체육부 관리                    
								
								
								
								















 SCH건강지원센터는 육체적, 정신적 건강을 관리하고 향상시키며, 위기예방 활동을 통하여 건강한 순천향인으로서 성숙하고 행복한 대학생활을 지원하기 위해 보건실, 심리건강상담실, 장애학생지원실로 구성되어 있습니다. 

					 보건실은 학생 및 교직원의 진료 및 건강관리와 질병의 조기발견, 기타 보건 향상에 필요한 사업을 수행하고 있습니다. 심리건강상담실은 재학생의 심리․정서적 어려움의 해소 및 위기예방, 개입 업무를 수행하고 있습니다. 장애학생지원실은 본교 장애학생의 편안한 학교생활을 지원하기 위한 업무를 수행하고 있습니다.






위치 :  학생회관 1층



홈페이지 : http://homepage.sch.ac.kr/healthsc 




업무내용




								
								
								
								보건실 
							
							
							
							



								
								
								
								1. 학생 및 교직원 진료 
							
							
							
							



								
								
								
								2. 응급처치 
							
							
							
							



								
								
								
								3. 건강검진 
							
							
							
							



								
								
								
								4. 학교경영자 배상책임보험 운영 
							
							
							
							



								
								
								
								5. 예방접종 및 안정실 운영 
							
							
							
							



								
								
								
								6. 금연클리닉 운영 
							
							
							
							



								
								
								
								7. 체성분 분석 및 상담 
							
							
							
							



								
								
								
								8. 기타 보건관리에 필요한 사항 
							
							
							
							





								
								
								
								장애인학생지원실 
							
							
							
							



								
								
								
								1. 장애학생 교육 생활 지원 
							
							
							
							



								
								
								
								2. 장애지원시설 실태조사 및 개선 
							
							
							
							



								
								
								
								3. 장애학생도우미 지원사업 
							
							
							
							



							
							
							
							4. 기타 장애 학생지원에 필요한 사항 
						
						
						
						



								
								
								
								1. 심리상담 
							
							
							
							



								
								
								
								2. 위기 예방 및 개입 프로그램 운영 
							
							
							
							



								
								
								
								3. 생명지킴이 양성 
							
							
							
							



								
								
								
								4. 기타 심리건강 유지에 필요한 사항 
							
							
							
							



							
							
							
							심리건강상담실 
						
						
						
						






 > 대학기관 > 대학본부 >  사무처














					총무팀은 문서관리, 직원 인사, 교직원 급여지급, 4대 보험 업무, 우편물관리, 시설물 사용허가 등의 업무를 담당하는 부서이다.






위치 : 대학본부 2층



연락처 : 041-530-1041~4




업무내용




								
								
								
								
								
								
									1. 교직원 급여에 관한 업무
								
							
							
							
							
							
							



								
								
								
								
								
								
									2. 직원 인사에 관한 업무
								
							
							
							
							
							
							



								
								
								
								
								
								
									3. 문서관리에 관한 업무
								
							
							
							
							
							
							



								
								
								
								
								
								
									4. 교직원 학회 및 출장에 관한 업무
								
							
							
							
							
							
							



								
								
								
								
								
								
									5. 상주업체 관리
								
							
							
							
							
							
							



								
								
								
								
								
								
									6. 학교 청소용역
								
							
							
							
							
							
							



								
								
								
								
								
								
									7. 차량 및 우편물 관리 업무
								
							
							
							
							
							
							



								
								
								
								
								
								
									8. 시설물 사용 승인
								
							
							
							
							
							
							



								
								
								
								
								
								
									9. 순천향쉼마루 운영
								
							
							
							
							
							
							














					재무팀에서는 예산편성에 따라 책정된 등록금을 재학생, 신입생, 편입생, 시간제학생 등 등록대상자에 대하여 등록 기간 내 등록금을 납부하도록 하고 있으며, 예산편성 절차에 따라 이를 집행하기 위해 자금계획을 수립하고, 수시로 발생되는 원인행위에 의한 수입과 지출을 근거로 현금흐름을 분석파악하며, 월말 또는 결산을 통하여 내부 및 외부회계법인의 재무 감사를 실시하여 재무 신뢰도를 제고하고, 매년 회계년도 종료후 학교비 결산내역을 공개하고 있다.


					
					
					
					
					
					또한 교직원 급여 및 외부강사, 연구비 등 개인별 소득에 따른 세무정보를 제공하고 있으며, 학교법인, 부속병원과의 업무 협의와, 이를 바탕으로 대학 전체의 재정 운영 상태를 이해 관계자에게 제공하고 있다.
				
				
				
				
				
				





위치 : 대학본부 2층



연락처 : 041-530-1054~9




업무내용




								
								
								
								
								
								1. 회계결산 및 내ㆍ외부회계감사
							
							
							
							
							
							



								
								
								
								
								
								2. 금융기관별 자금운영관리
							
							
							
							
							
							



								
								
								
								
								
								3. 세무관련업무
							
							
							
							
							
							



								
								
								
								
								
								4. 등록금 수납업무
							
							
							
							
							
							



								
								
								
								
								
								5. 각종 출납업무
							
							
							
							
							
							



								
								
								
								
								
								6. 학교법인 및 부속병원 회계 관련 업무
							
							
							
							
							
							



								
								7. 학교비, 산학협력단 회계 관련 업무                              
							
							














					관재팀은 물품의 구매 및 관리, 소모품 구입 및 지급을 담당하는 구매업무와 교육용 장비 구입 및 관리, 기본재산 관리, 각종 교육장비의 기술지원 및 유지보수, 교내 방송․음향장비를 운영 관리하는 장비․비품업무를 담당하고 있다.






위치 : 대학본부 2층



연락처 : 041-530-1060~6




업무내용



구매업무




									
									
									
									
									
									1. 물품 구매에 관한 사항
								
								
								
								
								
								



									
									
									
									
									
									2. 물품 적정가격 및 시장 조사에 관한 사항
								
								
								
								
								
								



									
									
									
									
									
									3. 물품 조달에 관한 사항
								
								
								
								
								
								



									
									
									
									
									
									4. 물품대장 정리 및 관리에 관한 사항
								
								
								
								
								
								



									
									
									
									
									
									5. 교내 비품 제작 의뢰에 관한 사항
								
								
								
								
								
								



									
									
									
									
									
									6. 물품 입․출고에 관한 사항
								
								
								
								
								
								



									
									
									
									
									
									7. 불용품 처분에 관한 사항
								
								
								
								
								
								



									
									
									
									
									
									8. 소모품에 관한 사항
								
								
								
								
								
								



									
									
									
									
									
									9. 재산에 관한 공과금 납부 원인 행위
								
								
								
								
								
								



									
									
									
									
									
									10. 기본재산 (건물, 토지)의 관리
								
								
								
								
								
								



									
									
									
									
									
									11. 기타 위 각호에 부수되는 사항
								
								
								
								
								
								





장비 비품업무




									
									
									
									
									
									1. 교육용 기자재 구매에 관한 사항
								
								
								
								
								
								



									
									
									
									
									
									2. 교육용 기자재 수급에 관한 사항
								
								
								
								
								
								



									
									
									
									
									
									3. 기자재 입․출고에 관한 사항
								
								
								
								
								
								



									
									
									
									
									
									4. 장비대장 정리 및 관리에 관한 사항
								
								
								
								
								
								



									
									
									
									
									
									5. 불용품 처분에 관한 사항
								
								
								
								
								
								



									
									
									
									
									
									6. 교육기기 기술지원 및 기자재 유지보수에 관한 사항
								
								
								
								
								
								



									
									
									
									
									
									7. 방송국 기자재 기술지원에 관한 사항
								
								
								
								
								
								



									
									
									
									
									
									8. 교육용 기자재 관리 및 지원에 관한 사항
								
								
								
								
								
								



									
									
									
									
									
									9. 음향기기 및 영상기기 관리․유지보수에 관한 사항
								
								
								
								
								
								



									
									
									
									
									
									10. 방송기기 및 약전기기 관리․유지보수에 관한 사항
								
								
								
								
								
								



									
									
									
									
									
									11. 위의 각호와 관련한 기술교육 연수에 관한 사항
								
								
								
								
								
								



									
									
									
									
									
									12. 기타 위 각호에 부수되는 사항
								
								
								
								
								
								















					시설팀은 건물의 유지보수관리, 공사시공, 감독, 건축물의 증․개축, 목공실 운영, 교내조경, 전화 및 통신관리, 강전 및 기기 관리, 소방시설의 관리, 각종 행사의 시설물 설치, 전기실의 운영, 오폐수관리, 기관실의 운영관리를 담당하고 있






위치 : 대학본부 2층



연락처 : 041-530-1070~9




업무내용


							
							
							
							
							시설관리․공사관련 업무, 조경․환경 관련 업무, 전기․통신 관련 업무, 소방관련 업무, 기관관련 업무, 목공실․기관실․변전실 운영 및 관리, 기타 시설물 관리 업무를 관장하고 있다.
						
						
						
						
						






 > 대학기관 > 대학본부 >  대외협력실














					홍보팀은 1997년 5월 1일 대외협력홍보과로 출발하여 2001년 2월 28일까지 대외협력업무 및 국제교류교신업무와 홍보업무를 병행하다가 2001년 3월 1일 직제기구 개편에 따라 기획처 산하 홍보팀으로 분리되었다. 2004년 3월 1일부터 대외협력실 산하 대외홍보팀으로 운영되었으며 2009년 1월 1일자로 대외협력처 홍보팀으로 개편되어 각종 언론매체를 통한 홍보활동과 광고 사업 등 대학의 홍보업무 전반을 담당하고 있다.






위치 : 대학본부 1층




업무내용



대외홍보활동




									
									
									1. 뉴스 아이템 개발, 보도자료 작성, 신문 모니터링 등의 언론PR 
								
								
								



									
									
									2. 홍보영상물, 브로셔, 소식지 등 PR제작물의 기획 및 집행 등 지속적인 홍보 활동 
								
								
								



									
									
									3. 각종 광고홍보를 통한 대학 이미지 제고 
								
								
								



									
									
									4. 국내․외 언론기관과의 협조를 통한 인지도 제고 
								
								
								





대내홍보활동




									
									
									1. 조직 내 구성원들에 대한 정보 공유 및 일체감 조성 
								
								
								



									
									
									2. 홍보자료 수집 및 정리보관에 관한 사항 
								
								
								



									
									
									3. 홍보용 사진촬영 및 보관에 관한 사항 
								
								
								



									
									
									4. 대내외 각종 출판, 유인물 수집 및 보관에 관한 사항 
								
								
								



									
									
									5. 각종 기념품, 홍보물 제작 및 통제에 관한 사항 
								
								
								



									
									
									6. 대학 내 각종 홍보소재 발굴 
								
								
								



									
									
									7. 소관위원회에 관한 사항 
								
								
								















					비서팀은 총장 · 부총장 비서 업무를 전담한다.






위치 : 대학본부 3층




업무내용




								
								
								1. 총장․부총장 의전에 관한사항 
							
							
							



								
								
								2. 총장․부총장의 대내외 행사 일정 조정 
							
							
							



								
								
								3. 총장․부총장의 통신처리 
							
							
							



								
								
								4. 총장․부총장이 지시하는 사항 
							
							
							



								
								
								5. 총장․부총장실의 민원처리 
							
							
							



								
								
								6. 기타 위 각 호에 부수되는 사항 
							
							
							














					대외협력팀은 정부기관 및 지방자치단체들과의 각종 협약, 대학발전기금, 총동창회 관리 업무와 같은 대외협력 관련 업무를 주관한다.






위치 : 대학본부 2층



홈페이지 : http://give.sch.ac.kr




업무내용




								
								
								
								
								1. 정부기관, 지방자치단체, 학교 등 대외기관과의 각종 상호교류 및 협약체결에 관한사항
							
							
							
							
							



								
								
								
								
								2. 대학발전기금 모금 및 관리에 관한사항
							
							
							
							
							



								
								
								
								
								3. 총동창회 관리 업무




								
								
								
								
								4. 대학브랜드 관련업무에 관한 사항 
							
							
							
							
							



								
								
								
								
								5. 총장주관의 각종 회의 진행 업무에 관한 사항 
							
							
							
							
							



								
								
								
								
								6. 기타 위 각 호에 부수되는 사항 
							
							
							
							
							








 > 대학기관 > 대학본부 >  국제교육교류처














					국제교육교류처 교육지원팀은 사업목적 실행업무를 지원하는 곳으로 외국어교육원, 중국어교육원, 한국어교육원, 국제화과정, 국제교류업무에 관련된 제반 행정 및 학사업무를 관장하는 곳이다.






위치 : 국제교류관 2103



홈페이지 : http://sgee.sch.ac.kr




업무내용




								
								
								1. 외국어교육원 업무 
							
							
							



								
								
								2. 중국어교육원 업무 
							
							
							



								
								
								3. 한국어교육원 업무 
							
							
							



								
								
								4. 국제교류 업무 
							
							
							



								
								
								5. 국제화과정 업무 
							
							
							














					영어, 일본어 등을 교육하여 영어권뿐 아니라 일본어 사용 국가들 간의 교류 등 국제화 시대에 필요한 인재를 양성한다. English Village를 설치하여 운영하고 있다.






위치 : 국제교류관 2103




English Village Program
							 



청소년 영어 학습 프로그램 


							▪ 영어 문화권 및 일본 문화권 대학생들과 우리학교 재학생들이 함께 생활하며 언어학습 프로그램 및 다양한 교류 프로그램 참여를 통해 상호언어 및 문화를 학습 할 수 있도록 하는 프로그램으로 실제 생활을 통해 타 문화에 대한 이해를 향상시키고 국제화 시대에 보다 빠르게 적응할 수 있는 인재 양성을 목적으로 함


							가) 원어민 교수 회화 강좌 또는 YBM 강좌(TOEIC, TOEFL, TOEIC SPEAKING) 수강
							- 주 4회(각 1시간) 또는 주 2회(각 2시간)
							나) 원어민 교수 직강 ENRICHMENT CLASS(회화, 작문, 독해 수업), 주 1회 2시간
							다) 외국인 유학생과 주 2회, 2(재학생):1(외국인 유학생) Language Exchange 수업
							라) 매 학기 모의토익 실시(2회)
							마) 외국인 유학생과 함께하는 Activities
							① Global Village Sports Festival
							② Field Trip
							③ Prom Dance
							④ Halloween Party
							바) 2인 1실, 한 개의 Suite은 총 6개의 방으로 구성 됨
							 


							- 청소년 영어캠프 : 일일 9시간 이상의 집중 수업과 기숙 프로그램 방학 중 개설
							- 주말 영어 학습 : 주말시간을 활용하여 아산시 거주 초등학생의 영어능력 향상을 통해 미래의 글로벌 인재 양성













					중국어를 집중적이고 전문적으로 교육시킴으로써 앞으로 증대되는 중국과의 교류에 필요한 인재를 양성한다. Chinese Village를 설치 운영하고 있다.






위치 : 국제교류관 2103




China Village Program 


							▪ 중국 어학연수를 국내에서 체험할 수 있는 집중 교육프로그램의 하나로서 중국학생들과 우리학교 재학생들이 기숙사에서 함께 생활하며 중국 문화를 자연스럽게 체득하고, 중국어 구사 능력을 향상 시킬 수 있는 프로그램


							가) 일반 중국어 수업 : 중국어 회화, HSK강좌 주 2회 수강 (각 1시간 30분)
							나) 심화 중국어 수업 : 주 1회 (1시간)
							① 중국 드라마·영화를 소재로한 중국 문화의 이해 수업
							② 중국어 번역 수업
							다) 외국인 유학생과 함께하는 1:1 중국어 학습 (주 2회)
							라) 매 학기 모의 HSK 2회 실시
							마) 외국인 유학생과 함께하는 Activities
							① Global Village Sports Festival
							② Field Trip
							③ Prom Dance
							④ Halloween Party
							바) 2인 1실, 한 개의 Suite은 총 6개의 방으로 구성 됨













					순천향대학교에서는 본교에 유학을 희망하거나 한국어구사능력 향상을 원하는 외국인을 위하여 한국어강좌를 개설ㆍ운영하고 있습니다. 외국의 어학연수생 뿐만 아니라 한국에 거주하는 외국인에게 실용한국어를 익히고 한국문화를 접할 수 있는 교육과정을 구성하고 있습니다. 한국문화, 시사, 토론, 한국문학, 컴퓨터 등의 폭넓은 강의와 한국어 말하기대회, 한국어 퀴즈대회, 문화체험 등의 행사로 한국어를 접할 수 있는 다양한 기회가 제공되어 보다 쉽고 빨리 한국어를 익힐 수 있습니다. 1년에 4쿼터로 개설되며, 1쿼터는 10주입니다. 수업은 주 5일이며 1~6급 강의가 개설되며, 학생들은 각각 개인능력에 맞는 수업을 수강하게 됩니다.






위치 : 국제교류관 2103 평생교육원 4F




과정 




								
								
								① 정규과정 
							
							
							



									
									
									한국어 교육원 정규과정은 한국어를 이수하고자 하는 외국인 학생들에게 초급단계부터 고급단계에 이르기까지 한국어 집중 교육을 실시한다.  
								
								
								



									
									
									쿼터제도 : 4쿼터제, 시간 : 10주/1쿼터, 20시간/주 
								
								
								





								
								
								② 재학생 과정 
							
							
							



									
									
									한국어 교육원 정규과정은 본교에 재학 중인 외국인 학생 또는 외국인 교환학생들을 대상으로 전공과목 수강에 필요한 한국어 능력을 신장시키고자 한국어 수업을 진행한다.  
								
								
								



									
									
									학기제도 : 2학기제, 시간 : 18시간/주 
								
								
								





								
								
								③ 특별과정 
							
							
							



									
									
									한국어 교육원 특별과정은 본교 아시아학 과정 소속 외국인 학생들에게 아시아학 과정중의 과목으로 한국어 교육을 실시한다.  
								
								
								



									
									
									학기제도 : 2학기제, 시간 : 6시간/주, 학점 : 6학점  
								
								
								





								
								
								④ 개설과목 
							
							
							


								한국어 말하기, 한국어 듣기, 한국어 읽기, 한국어 쓰기, 실용 한국어. 한국어 컴퓨터 활용. 시사한국어, 한국어 토론, 한국어와 문화, 한국문학 선독, 한국어 청해, 한국어 독해, 문장표현, 한국어 회화 , 한국어 능력 향상, 한자한국어, 한국어태권도, 사물놀이, 서예




								
								
								⑤ 한국어특별반 운영 
							
							
							



									
									
									가. 노래 한국어 - 듣기 쉬운 노래를 통해 따라 부르면서 한국어를 익히는 과정 
								
								
								



									
									
									나. 발음 클리닉 - 외국인들이 틀리기 쉬운 발음 및 어려운 발음 교정클리닉 과정 
								
								
								



									
									
									다. 한자 한국어 - 같은 한자권인 아시아권학생들을 위해 한자로 한국어를 배우는 과정  
								
								
								



									
									
									라. 한국어능력시험 대비반 - 한국어 능력시험(TOPIK)을 대비하여 실전 문제풀이 과정  
								
								
								



									
									
									마. 영화 한국어 - 한류열풍인 영화 등 동영상을 통해 실용한국어를 배우는 과정 
								
								
								



									
									
									바. 문화유적 탐사반 - 한국 문화를 직접 가서 보고 체험을 통해 익히는 과정 
								
								
								





								
								
								⑥ 문화체험   
							
							
							


								유학생의 한국문화에 대한 이해 증진과 한국 학생의 국제화 감각 배양 증진을 위해 한국학생과 함께 하는 프로그램으로 한국학생과 교류 기회를 제공하여 문화체험과 동시에 한국어 학습 동기 유발















					우리나라의 정치, 경제 및 문화 뿐 아니라 아시아 전반적인 교육과정을 제공하며, 교환학생들을 체계적으로 교육시킨다.






위치 : 국제교류관 2103




아시아학과정 정규 프로그램




								
								
								- 근대 동아시아 정치외교사 : Political and Diplomatic History of Modern East Asia 
							
							
							



								
								
								- 생활 속의 과학 : Science in Life  
							
							
							



								
								
								- 기초 한국무용 : Beginning Korean Dance 
							
							
							



								
								
								- 사물놀이 : Korean Folk Music(Samulnoli)  
							
							
							



								
								
								- 서예 : Korean Calligraphy  
							
							
							



								
								
								- 세계경영환경론 : International Business Environment 
							
							
							



								
								
								- 국제무역과 금융 : International Trade and Finance 
							
							
							



								
								
								- 국제가족비교 : International Comparative Family  
							
							
							



								
								
								- 한국현대영화의 이해 : Understanding Contemporary Korean Film  
							
							
							



								
								
								- 한국경제와 경영 : Korean Economy & Business 
							
							
							



								
								
								- 영어교육론 : Teaching Methodology 
							
							
							



								
								
								- 한국사 개론 : Introduction to Korean History 
							
							
							



								
								
								- 동아시아의 문화산업연구 : Cultural Industries in East Asia 
							
							
							



								
								
								- 국제사회의 이해 : Understanding Global Society 
							
							
							



								
								
								- 한국문화와 사회 : Korean Culture & Society  
							
							
							



								
								
								- 한국문학의 이해 : Understanding Korean Literature 
							
							
							



								
								
								- 국제관계개론 : Introduction to International Relations 
							
							
							



								
								
								- 한미관계사 : Korean American Relations 
							
							
							



								
								
								- 한국과 UN : Korea and United Nations  
							
							
							



								
								
								- 특별과정 : English Class for Japanese 
							
							
							



								
								
								- 한국연극체험 : Experiencing Korean Theatre  
							
							
							



								
								
								- 범죄와 사고사례연구 : Crime and Accident Case Studies 
							
							
							



								
								
								- 영상다큐멘터리의 이해 : Introduction to Documentary Film  
							
							
							



								
								
								- 한국기업의 성공전략 : Global Strategies of Korean Businesses 
							
							
							



								
								
								- 영양학적 관점에서 본 한국음식 : Nutritious Korean Foods 
							
							
							



								
								
								- 심리치료와 상담의 이해 : Introduction to Psychotherapy and Counseling  
							
							
							



								
								
								- 인간관련 서비스전문직 윤리 : Ethics and Knowledge about Human Service Profession 
							
							
							








 > 대학기관 > 대학본부 >  진로개발처














					입학에서 취업에 이르기까지 학생들의 취업역량 함양을 위한 각종 특강 및 교육을 실시하고 있으며, 취업관련 각종 정책개발과 취업교과목 운영을 비롯한 인턴십, 취업동아리운영, 지자체 또는 정부지원 사업 수행 등 다양한 취업프로그램을 운영합니다. 또한 입학에서 고급취업까지 보장하는 소수정예 엘리트 장학프로그램인 순천향 HONORS 프로그램을 운영하여 신입생부터 자신의 목표에 맞는 준비를 할 수 있도록 맞춤형 취업교육과 다양한 특전을 제공하고 있습니다.
					 






위치 :  I'Design관 2층
							 



홈페이지 : http://id.sch.ac.kr




업무내용




								
								
								
								1. 취업교과목 운영 
							
							
							
							



									
									
									
									- 취업길라잡이 
								
								
								
								



									
									
									
									- 여대생 커리어 개발과 취업전략 
								
								
								
								



									
									
									
									- 대학생활과 취업전략  
								
								
								
								





								
								
								
								2. 진로/취업지도 프로그램 
							
							
							
							



								
								
								
								3. 상시 진로지도시스템 운영 
							
							
							
							



								
								
								
								4. 직장체험프로그램 업무 지원 
							
							
							
							



								
								
								
								5. 총·학장 추천서 발급 
							
							
							
							



								
								
								
								6. 취업박람회 개최  
							
							
							
							



								
								
								
								7. 각종 정부지원 사업 선정 및 운영 
							
							
							
							



								
								
								
								8. 취업동아리 운영  
							
							
							
							



								
								
								
								9. 진로 및 취업관련 출판물 제작 
							
							
							
							



								10. 취업률 통계조사 
							
							
							
							



								
								
								
								11. 취업캠프 실시  
							
							
							
							



								
								
								
								12. 순천향 HONORS 프로그램 운영  
							
							
							
							



								
								
								
								13. 취업 홈페이지 운영 
							
							
							
							








 > 대학기관 > 대학본부 >  SIMS운영지원팀













					 순천향의생명연구원(Soonchunhyang Institute of Medi-bio Science, SIMS)은 우리 대학이 의생명과학 분야에서 글로벌 수준의 연구 경쟁력을 갖추고자 야심차게 마련한, 첨단의 연구환경과 최고의 교수진이 함께 하는 연구기관으로 SIMS운영지원팀은 동 연구원의 성공적인 도약을 위한 행정 업무를 수행하는 부서이다.






위치 : 순천향의생명연구원 천안시 동남구 봉정로 25




홈페이지 : http://www.sims.ac.kr




업무내용


							교내행정
							- 회계업무 및 예산관리
							- 기자재 및 소모품 구매 관리
							- 순천향의생명연구원 홈페이지관리
							- 대외업무 행정지원
							- 기타 순천향의생명연구원 관련 업무 추진


							학사행정
							- 의생명융합학과 수강신청, 수강관리
							- 대학원생 민원처리
							- 대학원학사 행정지원
							동물실행정
							- 실험동물실 이용자관리
							- 실험동물실 회계업무 및 예산관리
							- 실험동물실 기자재 및 소모품 구매 관리







 > 대학기관 > 대학본부 >  PRIME사업단














순천향대학교가 교육부의 산업연계 교육활성화 선도대학(PRIME) 사업(대형-사회 수요 선도대학)에 선정되었습니다.
이를 기반으로 순천향대학교는 MediTech(의료과학기술), SmartTech(융복합기술), HumanTech(문화기술)분야 사회수요맞춤형 인재를 양성하기위해
기존의 의료과학대학을 확대 발전시키는 한편, SCH미디어랩스 단과대학을 신설하여 미래사회변화와 산업수요에 적합한 융합 전공을 교육함으로써
Wellness(웰니스)시대를 선도할, 인문학적 소양을 갖춘 융합인재와 실무인재양성을 목표로 힘차게 도약합니다. 






위치 : 대학본부 2층



홈페이지 : https://prime.sch.ac.kr/



센터 정보




Industry Inside센터 : https://prime.sch.ac.kr/iic.php



SCH CO-OP센터 : http://coop.sch.ac.kr/



취업지원센터 : https://prime.sch.ac.kr/job.php



학생창업교육센터 : https://prime.sch.ac.kr/start.php



인문산학협력교육센터 : https://prime.sch.ac.kr/humanities.php



교육과정혁신센터 : https://prime.sch.ac.kr/cic.php












					"미래 웰니스산업을 선도하는 창의적 융합인재 양성"






위치 : 



홈페이지 : https://home.sch.ac.kr/wellness/





 

					웰니스융합학부는 다양한 학문의 융합을 통해 미래 웰니스산업을 선도하는 창의적 융합인재를 양성하는 신설 학부입니다. 체계적인 창업 교육 및 산업체 연계 교육으로 미래 성장 동력을 발굴하고, 신산업 경제 활성화에 기여하고자 합니다.




 > 대학기관 > 대학본부 >  교무처









 



					교무팀은 ‘학생가치 창출’을 위한 최 일선의 부서이다. 1만여 재학생과 700여명의 교원, 38,000여 졸업생을 대상으로 1차적인 교육행정 서비스를 제공하는 부서이기 때문이다. 순천향을 통해 배출되는 인재는 입학과 동시에 학적 생성, 수강 신청, 전공 선택, 수업, 성적 관리, 졸업에 이르기까지 교무팀의 보이지 않는 서비스를 통해서 완성된다. 그 밖에도 교원인사를 비롯한 교육과정의 운영, 교직운영과 대상자 선발, 가상대학 관리, 학적, 학칙 관리 등 전반적인 학사업무를 관장하고 있다. 이를 위하여 교무팀은 확고한 팀워크를 기반으로 ‘인간사랑’의 순천향 정신과 ‘진리 봉사 실천’의 건학이념을 실현하기 위하여 부단히 노력하고 있다. 






위치 : 대학본부 1층



홈페이지 : https://homepage.sch.ac.kr/gyomu/



업무내용




교육과정




									
									
									
									- 교무·학사계획 수립 및 운영 
								
								
								
								



									
									
									
									- 학칙 및 교무규정 관리 
								
								
								
								



									
									
									
									- 교육과정 편성 및 운영관리 
								
								
								
								





학적관리




									
									
									
									- 학생정원 관리 
								
								
								
								



									
									
									
									- 학생 학적(휴·복학, 제적, 자퇴, 재입학 등) 관리 
								
								
								
								



									
									
									
									- 학생 학위수여(졸업) 관리 
								
								
								
								





수업관리




									
									
									
									- 학기별 개설과목 및 수강 관리 
								
								
								
								



									
									
									
									- 학생성적 관리 
								
								
								
								



									
									
									
									- 교원자격 및 각종 자격증 취득 관리 
								
								
								
								



									
									
									
									- OCU 및 타 대학(외국대학) 학점교류 관리 
								
								
								
								





인사관리




									
									
									
									- 교원 충원계획수립 및 임용 관리 
								
								
								
								



									
									
									
									- 교원 업적평가 및 승진, 재임용 관리 
								
								
								
								



									
									
									
									- 교원 보직 및 파견 관리 
								
								
								
								



									
									
									
									- 시간강사 위촉관리 
								
								
								
								















					본 센터에서는 효율적인 교수법과 학습방법에 대한 체계적인 지원활동과 연구개발을 통하여 교수들의 교수력(teaching competency)을 높이고, 학생들의 자기주도적 학습력(learning competency)을 함양시키고, 자체 제작된 컨텐츠를 활용한 학내가상대학 및 이크래스를 운영함으로써 오프라인 교육의 질을 증진함으로써 대학교육의 질적 수준을 한 차원 높이고자 한다.






위치 : 인문과학관 4층



홈페이지 : https://shu.sch.ac.kr







 > 대학기관 > 대학본부 >  입학처














					우리대학교에 지원하고자 하는 수험생들 중 우수한 학생을 선발하기 위한 다양한 입시전형 개발과 그 세부계획을 수립하여 우수한 신입생을 선발하는 업무를 담당하고 있으며, 또한 입학팀에서는 신입생 선발방법과 우리대학의 차별성, 우수성 등을 많은 수험생들에게 알려주는 입시홍보 업무를 담당하는 부서이다.






위치 : 대학본부 1층


 홈페이지 : http://ipsi.sch.ac.kr 


업무내용




1. 신입생 선발




									
									
									- 대학입시 전형 개발 
								
								
								



									
									
									- 신입생 선발에 따른 입학전형계획 수립 및 진행 
								
								
								





2. 편입생 선발




									
									
									- 편입생 선발 계획 수립 
								
								
								



									
									
									- 편입생 선발에 따른 입학전형계획 수립 및 진행 
								
								
								




3. 시간제 등록생 선발


4. 입시 홍보













					잠재적인 능력을 가지고 있는 우수한 인재를 선발하기 위하여 지원자의 성적, 소질, 가정환경, 적성 등 다양한 요소를 고려한 입학전형을 개발·시행하며 입학제도개선에 관한 연구를 수행하는 부서이다.






위치 : 대학본부 1층



홈페이지 : http://ipsi.sch.ac.kr



업무내용




								
								
								1.입학사정관전형 계획 수립 및 신입생 선발 
							
							
							



									
									
									- 입학사정관전형 개발 
								
								
								



									
									
									- 입학사정관전형 계획 수립 및 진행 
								
								
								




							
							
							2. 입학사정관전형 관련 홍보 
						
						
						

							
							
							3. 입학제도 개선에 관한 연구 및 자료 수집 
						
						
						






 > 대학기관 > 대학본부 >  기획처














					기획팀은 향후 대학이 발전해 나갈 미래상을 제시하는 발전 계획의 수립과 대학을 구성하고 있는 교직원에 대한 정원의 책정 및 조직의 설폐, 제규정관리, 제안업무, 예산편성 및 집행, 각종평가 및 감사에 관한 사항 등 대학의 정책적 업무를 담당하는 부서로서 앞으로도 기획업무의 전문성 제고 및 구성원의 능력 개발을 통하여 학교발전의 밑거름이 될 것이다.






위치 : 대학본부 2층



업무내용





								
								
								
								
								1. 종합발전계획 수립 시행 
							
							
							
							
							



								
								
								
								
								2. 대학의 제규정의 제정 및 개폐 
							
							
							
							
							



								
								
								
								
								3. 대학의 조직편제 및 정원관리 
							
							
							
							
							



								
								
								
								
								4. 제안심의 처리 
							
							
							
							
							



								
								
								
								
								5. 대학 기본운영계획 수립 및 조정 
							
							
							
							
							



								
								
								
								
								6. 예산편성의 기본방침 수립 
							
							
							
							
							



								
								
								
								
								7. 예산의 편성 및 조정 
							
							
							
							
							



								
								
								
								
								8. 평가업무 기본계획 수립 및 수행 
							
							
							
							
							



								
								
								
								
								9. 자체평가수행 및 평가결과 분석 
							
							
							
							
							



								
								
								
								
								10. 각종 평가 관련 자료의 수집, 정리 
							
							
							
							
							



								
								
								
								
								11. 대학 통계자료의 수집, 분석, 작성 및 관리 
							
							
							
							
							



								
								
								
								
								12. 대학 재정지원 신청 업무 
							
							
							
							
							



								
								
								
								
								13. 감사에 대한 기본계획 수립 및 수행 
							
							
							
							
							



								
								
								
								
								14. 기타 각 호에 부수되는 사항 
							
							
							
							
							














					전산팀은 대학의 학사/연구/행정의 전산운영 지원, 행정업무의 전산화 프로그램 개발 및 유지, 대학 전산시스템 및 전산장비 관리 등의 업무를 수행하고 있다.
					전산팀은 1999년에 대우정보시스템과 협력하여 종합정보시스템을 개발하였고, 2000년에 Gigabit Ethernet 환경의 대학망 구축과 초고속국가망(PubnetPlus) T3(45Mbps)의 전용회선 도입을 통하여 빠른 인터넷 환경과 멀티미디어 서비스를 수용할 수 있는 계기를 마련하였다.
					2004년에 교육망(KREN)으로 전환 및 전용회선을 90Mbps으로 확장하였고, SUN사의 SF6800 서버를 활용하여 인터넷 기반의 학사행정 서비스를 제공하였다. 2007년에 통합저장관리시스템을 도입하고, 2008년에 전용회선을 200Mbps 확장하였으며 사용자에게 Gigabit 환경을 제공하는 교내망 증설사업을 추진하고 있다.
					그리고 대학 소프트웨어 라이센스 관리, 대학 정보 보호 및 보안 업무를 수행하고 있다.






위치 : 공과대학 3층 9345호



홈페이지 : http://ciso.sch.ac.kr/



업무내용





								
								
								
								
								1. 교육, 연구 및 행정의 전산운영 지원 
							
							
							
							
							



								
								
								
								
								2. 행정 업무 전산화 프로그램 개발 및 유지 
							
							
							
							
							



								
								
								
								
								3. 대학 전산시스템 및 전산장비 관리 
							
							
							
							
							



								
								
								
								
								4. 대학 전산망 및 전용회선 관리 
							
							
							
							
							



								
								
								
								
								5. 대학 소프트웨어 라이센스 관리 
							
							
							
							
							



								
								
								
								
								6. 대학 정보 보호 및 보안 업무 
							
							
							
							
							














					 지방대학 특성화사업(5개 사업단, 1개 우수학과)을 성공적으로 추진하고 지원하기 위한 부서로 대학 전체 교육역량강화사업 및 각 사업단(의과학 Nichebuster 창의인재 양성사업단, 창조적 헬스케어3.0 기술 및 서비스 인재 양성사업단, 지역사회 맞춤형 안전서포터 양성사업단, 글로벌 금융IT 융합 전문인력 양성사업단, 충청권 융합 생명-의약 양성사업단, 보건행정경영학과) 특성화사업을 지원하는 업무를 수행합니다. 

					 

					 대학 특성화사업은 지역사회의 수요와 특성을 고려하여 강점 분야 중심의 대학  특성화기반을 조성하고, 대학의 체질 개선을 유도하고자 하는 사업으로 우리 대학은 총 5개 사업단, 1개 우수학과에 선정되었으며, 5년간 171.85억원을 지원받는 사업입니다.






위치 : 인문과학관 5층 6501호



홈페이지 : http://ck1.sch.ac.kr/ 


업무내용




							 - 다양한 의료산업 분야에 능동적으로 대처할 수 있는 인재 양성

							 - 헬스케어 3.0을 선도할 통섭형 창의인재 양성

							 - 안전한 지역사회를 지향하는 현장 맞춤형 인재 양성

							 - Big Data 시대의 금융과 ICT 융합을 선도할 창의적 실무 인재 양성 

							 - 현장중심 의약바이오 융합교육을 통한 창의적 인재 양성

							 - 인류건강 실현에 공헌하는 보건의료 통섭형 창의인재 양성 












					대학예산팀은 순천향대학교 학교회계의 예산 편성 및 운영에 관한 전반적인 업무를 수행하고 있으며 대학 중·장기 발전 계획에 의거 대학 교육 경쟁력 강화에 이바지하고 있다.
					또한 총장직속 산하 기구인 SIR센터 운영 지원 업무를 하고 있으며, 각종 통계 수집·분석을 통해 대학의 정책 수립 및 의사결정 정보 제공과 관련된 IR(Institutional Research) 업무를 수행하고 있다.






위치 : 대학본부 2층



홈페이지 : 




업무내용


							◻ 대학 재정 운영 계획 수립 및 추진

							◻ 대학 예산 편성·조정 업무

							◻ 각종 수납금 및 인건비 책정


							◻ 대학정보공시·고등교육 통계 등 IR 관련 업무

							◻ SIR센터 지원 업무

							◻ 교·내외 통계 업무 및 통계연보 발간







 > 대학기관 > 대학본부 >  학생처









 



					학생팀은 인간사랑의 순천향 정신에 진리를 탐구하는 인재양성을 목표로 학생정책 수립과 서비스 제공, 장학(교내·외), 학생복지사업을 수행하고 있습니다.

					학생지원업무는 학생자치기구의 대내·외 행사지도 및 지원, 학생상벌관리 및 운영, 학생회 선거지원, 학생회비 집행관리, 신입생 수련회 지원, 학생 과외활동 및 학생 관련 민원 처리 업무 등을 진행하고 있으며, 이밖에 대학문화행사, 동아리 지원 업무, 체육부 지원 및 관리 업무도 담당하고 있습니다.


					
					
					
					장학업무는 교내 장학과 교외 장학으로 분리되며 교내 장학은 장학 예산 집행관리, 연속 장학생 관리, 각종 교내 장학 학생 선발 및 관리, 교내 장학 시스템 개발 및 관리 등의 업무를 수행하며 교외장학은 장학재단 예우 관리 지원, 보훈 장학 국고보조신청 및 관리, 학자금 대출 집행 및 관리, 정부 학자금 대출 관련 업무, 교외 장학재단과 연계된 장학 업무를 진행하고 있습니다. 
				
				
				
				





위치 : 학생회관 1층



홈페이지 : http://homepage.sch.ac.kr/student




업무내용



학생지도 및 학생복지 업무




									
									
									
									1. 학생자치단체 지도 
								
								
								
								



									
									
									
									2. 학생 상벌                    
								
								
								
								



									
									
									
									3. 학생증(스마트카드) 관리 
								
								
								
								



									
									
									
									4. 통학버스 및 셔틀버스 관리                    
								
								
								
								



									
									
									
									5. 신입생 및 편입생 오리엔테이션                    
								
								
								
								



									
									
									
									6. 학부(과)별 연합M.T 지원                    
								
								
								
								





장학 업무




									
									
									
									1. 신입생 장학생 선발 및 지급 
								
								
								
								



									
									
									
									2. 교내・외 장학생 선발 및 지급(국가장학금 포함)                    
								
								
								
								



									
									
									
									3. 정부학자금융자 관련 업무                    
								
								
								
								



									
									
									
									4. 기타장학생 선발 및 지급                    
								
								
								
								





기타 업무




									
									
									
									1. 교내 시설물 집회 게시물 허가                    
								
								
								
								



									
									
									
									2. 학생 공결계 처리 업무 
								
								
								
								



									
									
									
									3. 향설 고시원 관리                    
								
								
								
								



									
									
									
									4. 체육부 관리                    
								
								
								
								















 SCH건강지원센터는 육체적, 정신적 건강을 관리하고 향상시키며, 위기예방 활동을 통하여 건강한 순천향인으로서 성숙하고 행복한 대학생활을 지원하기 위해 보건실, 심리건강상담실, 장애학생지원실로 구성되어 있습니다. 

					 보건실은 학생 및 교직원의 진료 및 건강관리와 질병의 조기발견, 기타 보건 향상에 필요한 사업을 수행하고 있습니다. 심리건강상담실은 재학생의 심리․정서적 어려움의 해소 및 위기예방, 개입 업무를 수행하고 있습니다. 장애학생지원실은 본교 장애학생의 편안한 학교생활을 지원하기 위한 업무를 수행하고 있습니다.






위치 :  학생회관 1층



홈페이지 : http://homepage.sch.ac.kr/healthsc 




업무내용




								
								
								
								보건실 
							
							
							
							



								
								
								
								1. 학생 및 교직원 진료 
							
							
							
							



								
								
								
								2. 응급처치 
							
							
							
							



								
								
								
								3. 건강검진 
							
							
							
							



								
								
								
								4. 학교경영자 배상책임보험 운영 
							
							
							
							



								
								
								
								5. 예방접종 및 안정실 운영 
							
							
							
							



								
								
								
								6. 금연클리닉 운영 
							
							
							
							



								
								
								
								7. 체성분 분석 및 상담 
							
							
							
							



								
								
								
								8. 기타 보건관리에 필요한 사항 
							
							
							
							





								
								
								
								장애인학생지원실 
							
							
							
							



								
								
								
								1. 장애학생 교육 생활 지원 
							
							
							
							



								
								
								
								2. 장애지원시설 실태조사 및 개선 
							
							
							
							



								
								
								
								3. 장애학생도우미 지원사업 
							
							
							
							



							
							
							
							4. 기타 장애 학생지원에 필요한 사항 
						
						
						
						



								
								
								
								1. 심리상담 
							
							
							
							



								
								
								
								2. 위기 예방 및 개입 프로그램 운영 
							
							
							
							



								
								
								
								3. 생명지킴이 양성 
							
							
							
							



								
								
								
								4. 기타 심리건강 유지에 필요한 사항 
							
							
							
							



							
							
							
							심리건강상담실 
						
						
						
						






 > 대학기관 > 대학본부 >  사무처














					총무팀은 문서관리, 직원 인사, 교직원 급여지급, 4대 보험 업무, 우편물관리, 시설물 사용허가 등의 업무를 담당하는 부서이다.






위치 : 대학본부 2층



연락처 : 041-530-1041~4




업무내용




								
								
								
								
								
								
									1. 교직원 급여에 관한 업무
								
							
							
							
							
							
							



								
								
								
								
								
								
									2. 직원 인사에 관한 업무
								
							
							
							
							
							
							



								
								
								
								
								
								
									3. 문서관리에 관한 업무
								
							
							
							
							
							
							



								
								
								
								
								
								
									4. 교직원 학회 및 출장에 관한 업무
								
							
							
							
							
							
							



								
								
								
								
								
								
									5. 상주업체 관리
								
							
							
							
							
							
							



								
								
								
								
								
								
									6. 학교 청소용역
								
							
							
							
							
							
							



								
								
								
								
								
								
									7. 차량 및 우편물 관리 업무
								
							
							
							
							
							
							



								
								
								
								
								
								
									8. 시설물 사용 승인
								
							
							
							
							
							
							



								
								
								
								
								
								
									9. 순천향쉼마루 운영
								
							
							
							
							
							
							














					재무팀에서는 예산편성에 따라 책정된 등록금을 재학생, 신입생, 편입생, 시간제학생 등 등록대상자에 대하여 등록 기간 내 등록금을 납부하도록 하고 있으며, 예산편성 절차에 따라 이를 집행하기 위해 자금계획을 수립하고, 수시로 발생되는 원인행위에 의한 수입과 지출을 근거로 현금흐름을 분석파악하며, 월말 또는 결산을 통하여 내부 및 외부회계법인의 재무 감사를 실시하여 재무 신뢰도를 제고하고, 매년 회계년도 종료후 학교비 결산내역을 공개하고 있다.


					
					
					
					
					
					또한 교직원 급여 및 외부강사, 연구비 등 개인별 소득에 따른 세무정보를 제공하고 있으며, 학교법인, 부속병원과의 업무 협의와, 이를 바탕으로 대학 전체의 재정 운영 상태를 이해 관계자에게 제공하고 있다.
				
				
				
				
				
				





위치 : 대학본부 2층



연락처 : 041-530-1054~9




업무내용




								
								
								
								
								
								1. 회계결산 및 내ㆍ외부회계감사
							
							
							
							
							
							



								
								
								
								
								
								2. 금융기관별 자금운영관리
							
							
							
							
							
							



								
								
								
								
								
								3. 세무관련업무
							
							
							
							
							
							



								
								
								
								
								
								4. 등록금 수납업무
							
							
							
							
							
							



								
								
								
								
								
								5. 각종 출납업무
							
							
							
							
							
							



								
								
								
								
								
								6. 학교법인 및 부속병원 회계 관련 업무
							
							
							
							
							
							



								
								7. 학교비, 산학협력단 회계 관련 업무                              
							
							














					관재팀은 물품의 구매 및 관리, 소모품 구입 및 지급을 담당하는 구매업무와 교육용 장비 구입 및 관리, 기본재산 관리, 각종 교육장비의 기술지원 및 유지보수, 교내 방송․음향장비를 운영 관리하는 장비․비품업무를 담당하고 있다.






위치 : 대학본부 2층



연락처 : 041-530-1060~6




업무내용



구매업무




									
									
									
									
									
									1. 물품 구매에 관한 사항
								
								
								
								
								
								



									
									
									
									
									
									2. 물품 적정가격 및 시장 조사에 관한 사항
								
								
								
								
								
								



									
									
									
									
									
									3. 물품 조달에 관한 사항
								
								
								
								
								
								



									
									
									
									
									
									4. 물품대장 정리 및 관리에 관한 사항
								
								
								
								
								
								



									
									
									
									
									
									5. 교내 비품 제작 의뢰에 관한 사항
								
								
								
								
								
								



									
									
									
									
									
									6. 물품 입․출고에 관한 사항
								
								
								
								
								
								



									
									
									
									
									
									7. 불용품 처분에 관한 사항
								
								
								
								
								
								



									
									
									
									
									
									8. 소모품에 관한 사항
								
								
								
								
								
								



									
									
									
									
									
									9. 재산에 관한 공과금 납부 원인 행위
								
								
								
								
								
								



									
									
									
									
									
									10. 기본재산 (건물, 토지)의 관리
								
								
								
								
								
								



									
									
									
									
									
									11. 기타 위 각호에 부수되는 사항
								
								
								
								
								
								





장비 비품업무




									
									
									
									
									
									1. 교육용 기자재 구매에 관한 사항
								
								
								
								
								
								



									
									
									
									
									
									2. 교육용 기자재 수급에 관한 사항
								
								
								
								
								
								



									
									
									
									
									
									3. 기자재 입․출고에 관한 사항
								
								
								
								
								
								



									
									
									
									
									
									4. 장비대장 정리 및 관리에 관한 사항
								
								
								
								
								
								



									
									
									
									
									
									5. 불용품 처분에 관한 사항
								
								
								
								
								
								



									
									
									
									
									
									6. 교육기기 기술지원 및 기자재 유지보수에 관한 사항
								
								
								
								
								
								



									
									
									
									
									
									7. 방송국 기자재 기술지원에 관한 사항
								
								
								
								
								
								



									
									
									
									
									
									8. 교육용 기자재 관리 및 지원에 관한 사항
								
								
								
								
								
								



									
									
									
									
									
									9. 음향기기 및 영상기기 관리․유지보수에 관한 사항
								
								
								
								
								
								



									
									
									
									
									
									10. 방송기기 및 약전기기 관리․유지보수에 관한 사항
								
								
								
								
								
								



									
									
									
									
									
									11. 위의 각호와 관련한 기술교육 연수에 관한 사항
								
								
								
								
								
								



									
									
									
									
									
									12. 기타 위 각호에 부수되는 사항
								
								
								
								
								
								















					시설팀은 건물의 유지보수관리, 공사시공, 감독, 건축물의 증․개축, 목공실 운영, 교내조경, 전화 및 통신관리, 강전 및 기기 관리, 소방시설의 관리, 각종 행사의 시설물 설치, 전기실의 운영, 오폐수관리, 기관실의 운영관리를 담당하고 있






위치 : 대학본부 2층



연락처 : 041-530-1070~9




업무내용


							
							
							
							
							시설관리․공사관련 업무, 조경․환경 관련 업무, 전기․통신 관련 업무, 소방관련 업무, 기관관련 업무, 목공실․기관실․변전실 운영 및 관리, 기타 시설물 관리 업무를 관장하고 있다.
						
						
						
						
						






 > 대학기관 > 대학본부 >  대외협력실














					홍보팀은 1997년 5월 1일 대외협력홍보과로 출발하여 2001년 2월 28일까지 대외협력업무 및 국제교류교신업무와 홍보업무를 병행하다가 2001년 3월 1일 직제기구 개편에 따라 기획처 산하 홍보팀으로 분리되었다. 2004년 3월 1일부터 대외협력실 산하 대외홍보팀으로 운영되었으며 2009년 1월 1일자로 대외협력처 홍보팀으로 개편되어 각종 언론매체를 통한 홍보활동과 광고 사업 등 대학의 홍보업무 전반을 담당하고 있다.






위치 : 대학본부 1층




업무내용



대외홍보활동




									
									
									1. 뉴스 아이템 개발, 보도자료 작성, 신문 모니터링 등의 언론PR 
								
								
								



									
									
									2. 홍보영상물, 브로셔, 소식지 등 PR제작물의 기획 및 집행 등 지속적인 홍보 활동 
								
								
								



									
									
									3. 각종 광고홍보를 통한 대학 이미지 제고 
								
								
								



									
									
									4. 국내․외 언론기관과의 협조를 통한 인지도 제고 
								
								
								





대내홍보활동




									
									
									1. 조직 내 구성원들에 대한 정보 공유 및 일체감 조성 
								
								
								



									
									
									2. 홍보자료 수집 및 정리보관에 관한 사항 
								
								
								



									
									
									3. 홍보용 사진촬영 및 보관에 관한 사항 
								
								
								



									
									
									4. 대내외 각종 출판, 유인물 수집 및 보관에 관한 사항 
								
								
								



									
									
									5. 각종 기념품, 홍보물 제작 및 통제에 관한 사항 
								
								
								



									
									
									6. 대학 내 각종 홍보소재 발굴 
								
								
								



									
									
									7. 소관위원회에 관한 사항 
								
								
								















					비서팀은 총장 · 부총장 비서 업무를 전담한다.






위치 : 대학본부 3층




업무내용




								
								
								1. 총장․부총장 의전에 관한사항 
							
							
							



								
								
								2. 총장․부총장의 대내외 행사 일정 조정 
							
							
							



								
								
								3. 총장․부총장의 통신처리 
							
							
							



								
								
								4. 총장․부총장이 지시하는 사항 
							
							
							



								
								
								5. 총장․부총장실의 민원처리 
							
							
							



								
								
								6. 기타 위 각 호에 부수되는 사항 
							
							
							














					대외협력팀은 정부기관 및 지방자치단체들과의 각종 협약, 대학발전기금, 총동창회 관리 업무와 같은 대외협력 관련 업무를 주관한다.






위치 : 대학본부 2층



홈페이지 : http://give.sch.ac.kr




업무내용




								
								
								
								
								1. 정부기관, 지방자치단체, 학교 등 대외기관과의 각종 상호교류 및 협약체결에 관한사항
							
							
							
							
							



								
								
								
								
								2. 대학발전기금 모금 및 관리에 관한사항
							
							
							
							
							



								
								
								
								
								3. 총동창회 관리 업무




								
								
								
								
								4. 대학브랜드 관련업무에 관한 사항 
							
							
							
							
							



								
								
								
								
								5. 총장주관의 각종 회의 진행 업무에 관한 사항 
							
							
							
							
							



								
								
								
								
								6. 기타 위 각 호에 부수되는 사항 
							
							
							
							
							








 > 대학기관 > 대학본부 >  국제교육교류처














					국제교육교류처 교육지원팀은 사업목적 실행업무를 지원하는 곳으로 외국어교육원, 중국어교육원, 한국어교육원, 국제화과정, 국제교류업무에 관련된 제반 행정 및 학사업무를 관장하는 곳이다.






위치 : 국제교류관 2103



홈페이지 : http://sgee.sch.ac.kr




업무내용




								
								
								1. 외국어교육원 업무 
							
							
							



								
								
								2. 중국어교육원 업무 
							
							
							



								
								
								3. 한국어교육원 업무 
							
							
							



								
								
								4. 국제교류 업무 
							
							
							



								
								
								5. 국제화과정 업무 
							
							
							














					영어, 일본어 등을 교육하여 영어권뿐 아니라 일본어 사용 국가들 간의 교류 등 국제화 시대에 필요한 인재를 양성한다. English Village를 설치하여 운영하고 있다.






위치 : 국제교류관 2103




English Village Program
							 



청소년 영어 학습 프로그램 


							▪ 영어 문화권 및 일본 문화권 대학생들과 우리학교 재학생들이 함께 생활하며 언어학습 프로그램 및 다양한 교류 프로그램 참여를 통해 상호언어 및 문화를 학습 할 수 있도록 하는 프로그램으로 실제 생활을 통해 타 문화에 대한 이해를 향상시키고 국제화 시대에 보다 빠르게 적응할 수 있는 인재 양성을 목적으로 함


							가) 원어민 교수 회화 강좌 또는 YBM 강좌(TOEIC, TOEFL, TOEIC SPEAKING) 수강
							- 주 4회(각 1시간) 또는 주 2회(각 2시간)
							나) 원어민 교수 직강 ENRICHMENT CLASS(회화, 작문, 독해 수업), 주 1회 2시간
							다) 외국인 유학생과 주 2회, 2(재학생):1(외국인 유학생) Language Exchange 수업
							라) 매 학기 모의토익 실시(2회)
							마) 외국인 유학생과 함께하는 Activities
							① Global Village Sports Festival
							② Field Trip
							③ Prom Dance
							④ Halloween Party
							바) 2인 1실, 한 개의 Suite은 총 6개의 방으로 구성 됨
							 


							- 청소년 영어캠프 : 일일 9시간 이상의 집중 수업과 기숙 프로그램 방학 중 개설
							- 주말 영어 학습 : 주말시간을 활용하여 아산시 거주 초등학생의 영어능력 향상을 통해 미래의 글로벌 인재 양성













					중국어를 집중적이고 전문적으로 교육시킴으로써 앞으로 증대되는 중국과의 교류에 필요한 인재를 양성한다. Chinese Village를 설치 운영하고 있다.






위치 : 국제교류관 2103




China Village Program 


							▪ 중국 어학연수를 국내에서 체험할 수 있는 집중 교육프로그램의 하나로서 중국학생들과 우리학교 재학생들이 기숙사에서 함께 생활하며 중국 문화를 자연스럽게 체득하고, 중국어 구사 능력을 향상 시킬 수 있는 프로그램


							가) 일반 중국어 수업 : 중국어 회화, HSK강좌 주 2회 수강 (각 1시간 30분)
							나) 심화 중국어 수업 : 주 1회 (1시간)
							① 중국 드라마·영화를 소재로한 중국 문화의 이해 수업
							② 중국어 번역 수업
							다) 외국인 유학생과 함께하는 1:1 중국어 학습 (주 2회)
							라) 매 학기 모의 HSK 2회 실시
							마) 외국인 유학생과 함께하는 Activities
							① Global Village Sports Festival
							② Field Trip
							③ Prom Dance
							④ Halloween Party
							바) 2인 1실, 한 개의 Suite은 총 6개의 방으로 구성 됨













					순천향대학교에서는 본교에 유학을 희망하거나 한국어구사능력 향상을 원하는 외국인을 위하여 한국어강좌를 개설ㆍ운영하고 있습니다. 외국의 어학연수생 뿐만 아니라 한국에 거주하는 외국인에게 실용한국어를 익히고 한국문화를 접할 수 있는 교육과정을 구성하고 있습니다. 한국문화, 시사, 토론, 한국문학, 컴퓨터 등의 폭넓은 강의와 한국어 말하기대회, 한국어 퀴즈대회, 문화체험 등의 행사로 한국어를 접할 수 있는 다양한 기회가 제공되어 보다 쉽고 빨리 한국어를 익힐 수 있습니다. 1년에 4쿼터로 개설되며, 1쿼터는 10주입니다. 수업은 주 5일이며 1~6급 강의가 개설되며, 학생들은 각각 개인능력에 맞는 수업을 수강하게 됩니다.






위치 : 국제교류관 2103 평생교육원 4F




과정 




								
								
								① 정규과정 
							
							
							



									
									
									한국어 교육원 정규과정은 한국어를 이수하고자 하는 외국인 학생들에게 초급단계부터 고급단계에 이르기까지 한국어 집중 교육을 실시한다.  
								
								
								



									
									
									쿼터제도 : 4쿼터제, 시간 : 10주/1쿼터, 20시간/주 
								
								
								





								
								
								② 재학생 과정 
							
							
							



									
									
									한국어 교육원 정규과정은 본교에 재학 중인 외국인 학생 또는 외국인 교환학생들을 대상으로 전공과목 수강에 필요한 한국어 능력을 신장시키고자 한국어 수업을 진행한다.  
								
								
								



									
									
									학기제도 : 2학기제, 시간 : 18시간/주 
								
								
								





								
								
								③ 특별과정 
							
							
							



									
									
									한국어 교육원 특별과정은 본교 아시아학 과정 소속 외국인 학생들에게 아시아학 과정중의 과목으로 한국어 교육을 실시한다.  
								
								
								



									
									
									학기제도 : 2학기제, 시간 : 6시간/주, 학점 : 6학점  
								
								
								





								
								
								④ 개설과목 
							
							
							


								한국어 말하기, 한국어 듣기, 한국어 읽기, 한국어 쓰기, 실용 한국어. 한국어 컴퓨터 활용. 시사한국어, 한국어 토론, 한국어와 문화, 한국문학 선독, 한국어 청해, 한국어 독해, 문장표현, 한국어 회화 , 한국어 능력 향상, 한자한국어, 한국어태권도, 사물놀이, 서예




								
								
								⑤ 한국어특별반 운영 
							
							
							



									
									
									가. 노래 한국어 - 듣기 쉬운 노래를 통해 따라 부르면서 한국어를 익히는 과정 
								
								
								



									
									
									나. 발음 클리닉 - 외국인들이 틀리기 쉬운 발음 및 어려운 발음 교정클리닉 과정 
								
								
								



									
									
									다. 한자 한국어 - 같은 한자권인 아시아권학생들을 위해 한자로 한국어를 배우는 과정  
								
								
								



									
									
									라. 한국어능력시험 대비반 - 한국어 능력시험(TOPIK)을 대비하여 실전 문제풀이 과정  
								
								
								



									
									
									마. 영화 한국어 - 한류열풍인 영화 등 동영상을 통해 실용한국어를 배우는 과정 
								
								
								



									
									
									바. 문화유적 탐사반 - 한국 문화를 직접 가서 보고 체험을 통해 익히는 과정 
								
								
								





								
								
								⑥ 문화체험   
							
							
							


								유학생의 한국문화에 대한 이해 증진과 한국 학생의 국제화 감각 배양 증진을 위해 한국학생과 함께 하는 프로그램으로 한국학생과 교류 기회를 제공하여 문화체험과 동시에 한국어 학습 동기 유발















					우리나라의 정치, 경제 및 문화 뿐 아니라 아시아 전반적인 교육과정을 제공하며, 교환학생들을 체계적으로 교육시킨다.






위치 : 국제교류관 2103




아시아학과정 정규 프로그램




								
								
								- 근대 동아시아 정치외교사 : Political and Diplomatic History of Modern East Asia 
							
							
							



								
								
								- 생활 속의 과학 : Science in Life  
							
							
							



								
								
								- 기초 한국무용 : Beginning Korean Dance 
							
							
							



								
								
								- 사물놀이 : Korean Folk Music(Samulnoli)  
							
							
							



								
								
								- 서예 : Korean Calligraphy  
							
							
							



								
								
								- 세계경영환경론 : International Business Environment 
							
							
							



								
								
								- 국제무역과 금융 : International Trade and Finance 
							
							
							



								
								
								- 국제가족비교 : International Comparative Family  
							
							
							



								
								
								- 한국현대영화의 이해 : Understanding Contemporary Korean Film  
							
							
							



								
								
								- 한국경제와 경영 : Korean Economy & Business 
							
							
							



								
								
								- 영어교육론 : Teaching Methodology 
							
							
							



								
								
								- 한국사 개론 : Introduction to Korean History 
							
							
							



								
								
								- 동아시아의 문화산업연구 : Cultural Industries in East Asia 
							
							
							



								
								
								- 국제사회의 이해 : Understanding Global Society 
							
							
							



								
								
								- 한국문화와 사회 : Korean Culture & Society  
							
							
							



								
								
								- 한국문학의 이해 : Understanding Korean Literature 
							
							
							



								
								
								- 국제관계개론 : Introduction to International Relations 
							
							
							



								
								
								- 한미관계사 : Korean American Relations 
							
							
							



								
								
								- 한국과 UN : Korea and United Nations  
							
							
							



								
								
								- 특별과정 : English Class for Japanese 
							
							
							



								
								
								- 한국연극체험 : Experiencing Korean Theatre  
							
							
							



								
								
								- 범죄와 사고사례연구 : Crime and Accident Case Studies 
							
							
							



								
								
								- 영상다큐멘터리의 이해 : Introduction to Documentary Film  
							
							
							



								
								
								- 한국기업의 성공전략 : Global Strategies of Korean Businesses 
							
							
							



								
								
								- 영양학적 관점에서 본 한국음식 : Nutritious Korean Foods 
							
							
							



								
								
								- 심리치료와 상담의 이해 : Introduction to Psychotherapy and Counseling  
							
							
							



								
								
								- 인간관련 서비스전문직 윤리 : Ethics and Knowledge about Human Service Profession 
							
							
							








 > 대학기관 > 대학본부 >  진로개발처














					입학에서 취업에 이르기까지 학생들의 취업역량 함양을 위한 각종 특강 및 교육을 실시하고 있으며, 취업관련 각종 정책개발과 취업교과목 운영을 비롯한 인턴십, 취업동아리운영, 지자체 또는 정부지원 사업 수행 등 다양한 취업프로그램을 운영합니다. 또한 입학에서 고급취업까지 보장하는 소수정예 엘리트 장학프로그램인 순천향 HONORS 프로그램을 운영하여 신입생부터 자신의 목표에 맞는 준비를 할 수 있도록 맞춤형 취업교육과 다양한 특전을 제공하고 있습니다.
					 






위치 :  I'Design관 2층
							 



홈페이지 : http://id.sch.ac.kr




업무내용




								
								
								
								1. 취업교과목 운영 
							
							
							
							



									
									
									
									- 취업길라잡이 
								
								
								
								



									
									
									
									- 여대생 커리어 개발과 취업전략 
								
								
								
								



									
									
									
									- 대학생활과 취업전략  
								
								
								
								





								
								
								
								2. 진로/취업지도 프로그램 
							
							
							
							



								
								
								
								3. 상시 진로지도시스템 운영 
							
							
							
							



								
								
								
								4. 직장체험프로그램 업무 지원 
							
							
							
							



								
								
								
								5. 총·학장 추천서 발급 
							
							
							
							



								
								
								
								6. 취업박람회 개최  
							
							
							
							



								
								
								
								7. 각종 정부지원 사업 선정 및 운영 
							
							
							
							



								
								
								
								8. 취업동아리 운영  
							
							
							
							



								
								
								
								9. 진로 및 취업관련 출판물 제작 
							
							
							
							



								10. 취업률 통계조사 
							
							
							
							



								
								
								
								11. 취업캠프 실시  
							
							
							
							



								
								
								
								12. 순천향 HONORS 프로그램 운영  
							
							
							
							



								
								
								
								13. 취업 홈페이지 운영 
							
							
							
							








 > 대학기관 > 대학본부 >  SIMS운영지원팀













					 순천향의생명연구원(Soonchunhyang Institute of Medi-bio Science, SIMS)은 우리 대학이 의생명과학 분야에서 글로벌 수준의 연구 경쟁력을 갖추고자 야심차게 마련한, 첨단의 연구환경과 최고의 교수진이 함께 하는 연구기관으로 SIMS운영지원팀은 동 연구원의 성공적인 도약을 위한 행정 업무를 수행하는 부서이다.






위치 : 순천향의생명연구원 천안시 동남구 봉정로 25




홈페이지 : http://www.sims.ac.kr




업무내용


							교내행정
							- 회계업무 및 예산관리
							- 기자재 및 소모품 구매 관리
							- 순천향의생명연구원 홈페이지관리
							- 대외업무 행정지원
							- 기타 순천향의생명연구원 관련 업무 추진


							학사행정
							- 의생명융합학과 수강신청, 수강관리
							- 대학원생 민원처리
							- 대학원학사 행정지원
							동물실행정
							- 실험동물실 이용자관리
							- 실험동물실 회계업무 및 예산관리
							- 실험동물실 기자재 및 소모품 구매 관리







 > 대학기관 > 대학본부 >  PRIME사업단














순천향대학교가 교육부의 산업연계 교육활성화 선도대학(PRIME) 사업(대형-사회 수요 선도대학)에 선정되었습니다.
이를 기반으로 순천향대학교는 MediTech(의료과학기술), SmartTech(융복합기술), HumanTech(문화기술)분야 사회수요맞춤형 인재를 양성하기위해
기존의 의료과학대학을 확대 발전시키는 한편, SCH미디어랩스 단과대학을 신설하여 미래사회변화와 산업수요에 적합한 융합 전공을 교육함으로써
Wellness(웰니스)시대를 선도할, 인문학적 소양을 갖춘 융합인재와 실무인재양성을 목표로 힘차게 도약합니다. 






위치 : 대학본부 2층



홈페이지 : https://prime.sch.ac.kr/



센터 정보




Industry Inside센터 : https://prime.sch.ac.kr/iic.php



SCH CO-OP센터 : http://coop.sch.ac.kr/



취업지원센터 : https://prime.sch.ac.kr/job.php



학생창업교육센터 : https://prime.sch.ac.kr/start.php



인문산학협력교육센터 : https://prime.sch.ac.kr/humanities.php



교육과정혁신센터 : https://prime.sch.ac.kr/cic.php












					"미래 웰니스산업을 선도하는 창의적 융합인재 양성"






위치 : 



홈페이지 : https://home.sch.ac.kr/wellness/





 

					웰니스융합학부는 다양한 학문의 융합을 통해 미래 웰니스산업을 선도하는 창의적 융합인재를 양성하는 신설 학부입니다. 체계적인 창업 교육 및 산업체 연계 교육으로 미래 성장 동력을 발굴하고, 신산업 경제 활성화에 기여하고자 합니다.



